{
  "_class": "symbolInstance",
  "do_objectID": "10A14824-4A4C-42AA-A955-FFE9BB96E088",
  "exportOptions": {
    "_class": "exportOptions",
    "exportFormats": [
    ],
    "includedLayerIds": [
    ],
    "layerOptions": 0,
    "shouldTrim": false
  },
  "frame": {
    "_class": "rect",
    "constrainProportions": false,
    "height": 24,
    "width": 112,
    "x": 45,
    "y": 40
  },
  "horizontalSpacing": 0,
  "isFlippedHorizontal": false,
  "isFlippedVertical": false,
  "isLocked": false,
  "isVisible": true,
  "layerListExpandedType": 0,
  "masterInfluenceEdgeMaxXPadding": 0,
  "masterInfluenceEdgeMaxYPadding": 1,
  "masterInfluenceEdgeMinXPadding": 0,
  "masterInfluenceEdgeMinYPadding": 1,
  "name": "label",
  "nameIsFixed": true,
  "overrides": {
    "0": {
    },
    "1C9F58DA-0A26-4FE5-B7FF-9B7E17129836": {
      "symbolID": "A287E142-5EAC-442C-B631-EDD942D14117"
    },
    "A0DCBC4A-D209-4505-A126-06B7AC82EBFB": "feature proposal",
    "ObjectId": "overrideText"
  },
  "resizingConstraint": 63,
  "resizingType": 0,
  "rotation": 0,
  "shouldBreakMaskChain": false,
  "style": {
    "_class": "style",
    "endDecorationType": 0,
    "miterLimit": 10,
    "startDecorationType": 0
  },
  "symbolID": "E69CEC68-C419-43BA-BDDC-3F09A03D5013",
  "verticalSpacing": 0
}