{
  "_class": "group",
  "do_objectID": "16BA1430-548C-4D49-B324-54E863C7093F",
  "exportOptions": {
    "_class": "exportOptions",
    "exportFormats": [
    ],
    "includedLayerIds": [
    ],
    "layerOptions": 0,
    "shouldTrim": false
  },
  "frame": {
    "_class": "rect",
    "constrainProportions": false,
    "height": 53,
    "width": 68,
    "x": 251.212478920742,
    "y": 0
  },
  "hasClickThrough": false,
  "isFlippedHorizontal": false,
  "isFlippedVertical": false,
  "isLocked": false,
  "isVisible": true,
  "layerListExpandedType": 0,
  "layers": [
    {
      "class": "shapeGroup",
      "id": "7A6BDD3A-4A28-4A5D-BA3F-2DB91500F91F"
    },
    {
      "class": "shapeGroup",
      "id": "BE9EED7E-F885-462A-8E78-6BEC9EF0DDCC"
    },
    {
      "class": "group",
      "id": "F62F8C09-BC64-4EFF-8725-8CA06A499F15"
    },
    {
      "class": "text",
      "id": "6AAF9F6A-8017-4E5B-8E7E-E1D269462879"
    }
  ],
  "name": "tab-builds",
  "nameIsFixed": true,
  "resizingConstraint": 63,
  "resizingType": 0,
  "rotation": 0,
  "shouldBreakMaskChain": false,
  "style": {
    "_class": "style",
    "endDecorationType": 0,
    "miterLimit": 10,
    "startDecorationType": 0
  }
}