<svg width="12" height="12" viewBox="0 0 12 12" xmlns="http://www.w3.org/2000/svg">
    <path d="M6 0C2.691 0 0 2.691 0 6c0 2.967 2.167 5.431 5 5.91 0 0 .659.079 1 .09.326-.011 1-.09 1-.09 2.833-.479 5-2.943 5-5.91 0-3.309-2.691-6-6-6z" fill="#DF4431"/>
    <path d="M6 10c-2.206 0-4-1.794-4-4s1.794-4 4-4 4 1.794 4 4-1.794 4-4 4" fill="#34373C"/>
</svg>
