{
  "_class": "group",
  "do_objectID": "9F3E96D6-1E47-49FE-B208-BADC60FD51BB",
  "exportOptions": {
    "_class": "exportOptions",
    "exportFormats": [
    ],
    "includedLayerIds": [
    ],
    "layerOptions": 0,
    "shouldTrim": false
  },
  "frame": {
    "_class": "rect",
    "constrainProportions": false,
    "height": 28,
    "width": 647,
    "x": 607,
    "y": 222
  },
  "hasClickThrough": false,
  "isFlippedHorizontal": false,
  "isFlippedVertical": false,
  "isLocked": false,
  "isVisible": true,
  "layerListExpandedType": 2,
  "layers": [
    {
      "class": "shapeGroup",
      "id": "0BBA5963-B100-4137-95CD-9C804AA03094"
    },
    {
      "class": "shapeGroup",
      "id": "62930E27-BC4D-43CF-A8E5-1CD2924930FC"
    },
    {
      "class": "text",
      "id": "3BE3EA5C-59DD-4A49-A720-631FBB693CEB"
    }
  ],
  "name": "new_epic copy 4",
  "nameIsFixed": true,
  "resizingConstraint": 63,
  "resizingType": 0,
  "rotation": 0,
  "shouldBreakMaskChain": false,
  "style": {
    "_class": "style",
    "endDecorationType": 0,
    "miterLimit": 10,
    "startDecorationType": 0
  }
}